EESchema Schematic File Version 4
LIBS:ESCX-cache
EELAYER 26 0
EELAYER END
$Descr A4 11693 8268
encoding utf-8
Sheet 3 7
Title "VESC 6.4 redraw"
Date "2018-06-03"
Rev "6.4"
Comp "LI XITONG"
Comment1 ""
Comment2 ""
Comment3 ""
Comment4 ""
$EndDescr
$Comp
L ESCX-rescue:R-Device R13
U 1 1 5AE19004
P 3600 1450
F 0 "R13" H 3670 1496 50  0000 L CNN
F 1 "18k" V 3600 1400 50  0000 L CNN
F 2 "CRF1:SMD-0603_r" V 3530 1450 50  0001 C CNN
F 3 "~" H 3600 1450 50  0001 C CNN
	1    3600 1450
	1    0    0    -1  
$EndComp
$Comp
L ESCX-rescue:R-Device R12
U 1 1 5AE19184
P 3600 1050
F 0 "R12" H 3670 1096 50  0000 L CNN
F 1 "3.3k" V 3600 950 50  0000 L CNN
F 2 "CRF1:SMD-0603_r" V 3530 1050 50  0001 C CNN
F 3 "~" H 3600 1050 50  0001 C CNN
	1    3600 1050
	1    0    0    -1  
$EndComp
$Comp
L ESCX-rescue:R-Device R14
U 1 1 5AE19415
P 4000 1350
F 0 "R14" H 4070 1396 50  0000 L CNN
F 1 "15k" V 4000 1300 50  0000 L CNN
F 2 "CRF1:SMD-0603_r" V 3930 1350 50  0001 C CNN
F 3 "~" H 4000 1350 50  0001 C CNN
	1    4000 1350
	1    0    0    -1  
$EndComp
$Comp
L ESCX-rescue:R-Device R16
U 1 1 5AE17E70
P 4550 1100
F 0 "R16" V 4650 1050 50  0000 L CNN
F 1 "220k" V 4550 1000 50  0000 L CNN
F 2 "CRF1:SMD-0603_r" V 4480 1100 50  0001 C CNN
F 3 "~" H 4550 1100 50  0001 C CNN
	1    4550 1100
	1    0    0    -1  
$EndComp
$Comp
L ESCX-rescue:C-Device C18
U 1 1 5AE1E710
P 4000 1050
F 0 "C18" H 4050 1150 50  0000 L CNN
F 1 "6.8n" H 4050 950 50  0000 L CNN
F 2 "CRF1:SMD-1206" H 4038 900 50  0001 C CNN
F 3 "~" H 4000 1050 50  0001 C CNN
	1    4000 1050
	1    0    0    -1  
$EndComp
$Comp
L ESCX-rescue:C-Device C20
U 1 1 5AE1E77A
P 4300 1250
F 0 "C20" H 4350 1350 50  0000 L CNN
F 1 "120p" H 4300 1150 50  0000 L CNN
F 2 "CRF1:SMD-1206" H 4338 1100 50  0001 C CNN
F 3 "~" H 4300 1250 50  0001 C CNN
	1    4300 1250
	1    0    0    -1  
$EndComp
$Comp
L ESCX-rescue:GND-power #PWR035
U 1 1 5AE1E804
P 3200 950
F 0 "#PWR035" H 3200 700 50  0001 C CNN
F 1 "GND" H 3205 777 50  0000 C CNN
F 2 "" H 3200 950 50  0001 C CNN
F 3 "" H 3200 950 50  0001 C CNN
	1    3200 950 
	1    0    0    -1  
$EndComp
$Comp
L ESCX-rescue:+5V-power #PWR036
U 1 1 5AE1E873
P 3200 1550
F 0 "#PWR036" H 3200 1400 50  0001 C CNN
F 1 "+5V" H 3215 1723 50  0000 C CNN
F 2 "" H 3200 1550 50  0001 C CNN
F 3 "" H 3200 1550 50  0001 C CNN
	1    3200 1550
	1    0    0    -1  
$EndComp
Wire Wire Line
	3200 1550 3200 1600
Wire Wire Line
	3200 1600 3600 1600
Wire Wire Line
	3200 950  3200 900 
Wire Wire Line
	3200 900  3600 900 
Wire Wire Line
	3600 1200 3600 1250
Wire Wire Line
	3600 900  4000 900 
Connection ~ 3600 900 
Wire Wire Line
	4000 900  4300 900 
Wire Wire Line
	4550 900  4550 950 
Connection ~ 4000 900 
Wire Wire Line
	4300 1100 4300 900 
Connection ~ 4300 900 
Wire Wire Line
	4300 900  4550 900 
Wire Wire Line
	4000 1500 4300 1500
Wire Wire Line
	4300 1500 4300 1400
Wire Wire Line
	4300 1500 4300 1600
Wire Wire Line
	4300 1600 4800 1600
Connection ~ 4300 1500
Wire Wire Line
	4800 1500 4550 1500
Wire Wire Line
	4550 1500 4550 1250
NoConn ~ 4800 1800
NoConn ~ 4800 1900
Text HLabel 4800 2000 0    50   Input ~ 0
FAULT
Text HLabel 4800 2200 0    50   Input ~ 0
CS
Text HLabel 4800 2300 0    50   Input ~ 0
SDI
Text HLabel 4800 2400 0    50   Input ~ 0
SDO
Text HLabel 4800 2500 0    50   Input ~ 0
SCLK
Text HLabel 4800 3000 0    50   Input ~ 0
EN_GATE
Text HLabel 4800 3100 0    50   Input ~ 0
INH_A
Text HLabel 4800 3200 0    50   Input ~ 0
INL_A
Text HLabel 4800 3300 0    50   Input ~ 0
INH_B
Text HLabel 4800 3400 0    50   Input ~ 0
INL_B
Text HLabel 4800 3500 0    50   Input ~ 0
INH_C
Text HLabel 4800 3600 0    50   Input ~ 0
INL_C
$Comp
L ESCX-rescue:C-Device C21
U 1 1 5AE1F533
P 4400 2800
F 0 "C21" V 4350 2950 50  0000 C CNN
F 1 "22n" V 4350 2650 50  0000 C CNN
F 2 "CRF1:SMD-1206" H 4438 2650 50  0001 C CNN
F 3 "~" H 4400 2800 50  0001 C CNN
	1    4400 2800
	0    1    1    0   
$EndComp
$Comp
L ESCX-rescue:C-Device C16
U 1 1 5AE1F584
P 3700 2850
F 0 "C16" H 3750 2950 50  0000 L CNN
F 1 "2.2u" H 3750 2750 50  0000 L CNN
F 2 "CRF1:SMD-1206" H 3738 2700 50  0001 C CNN
F 3 "~" H 3700 2850 50  0001 C CNN
	1    3700 2850
	1    0    0    -1  
$EndComp
$Comp
L ESCX-rescue:C-Device C15
U 1 1 5AE1F5B6
P 3300 2850
F 0 "C15" H 3350 2950 50  0000 L CNN
F 1 "2.2u" H 3350 2750 50  0000 L CNN
F 2 "CRF1:SMD-1206" H 3338 2700 50  0001 C CNN
F 3 "~" H 3300 2850 50  0001 C CNN
	1    3300 2850
	1    0    0    -1  
$EndComp
Wire Wire Line
	4800 2800 4550 2800
Wire Wire Line
	4250 2800 4250 2900
Wire Wire Line
	4250 2900 4800 2900
Wire Wire Line
	4800 2700 3700 2700
Connection ~ 3700 2700
Wire Wire Line
	3700 2700 3300 2700
Wire Wire Line
	3700 3000 3300 3000
Wire Wire Line
	3300 3000 3300 3100
Connection ~ 3300 3000
$Comp
L ESCX-rescue:GND-power #PWR037
U 1 1 5AE2035F
P 3300 3100
F 0 "#PWR037" H 3300 2850 50  0001 C CNN
F 1 "GND" H 3305 2927 50  0000 C CNN
F 2 "" H 3300 3100 50  0001 C CNN
F 3 "" H 3300 3100 50  0001 C CNN
	1    3300 3100
	1    0    0    -1  
$EndComp
$Comp
L ESCX-rescue:C-Device C17
U 1 1 5AE204D2
P 3950 3850
F 0 "C17" H 4000 3950 50  0000 L CNN
F 1 "2.2u" H 4000 3750 50  0000 L CNN
F 2 "CRF1:SMD-1206" H 3988 3700 50  0001 C CNN
F 3 "~" H 3950 3850 50  0001 C CNN
	1    3950 3850
	1    0    0    -1  
$EndComp
$Comp
L ESCX-rescue:C-Device C19
U 1 1 5AE20529
P 4250 4300
F 0 "C19" H 4300 4400 50  0000 L CNN
F 1 "2.2u" H 4300 4200 50  0000 L CNN
F 2 "CRF1:SMD-1206" H 4288 4150 50  0001 C CNN
F 3 "~" H 4250 4300 50  0001 C CNN
	1    4250 4300
	1    0    0    -1  
$EndComp
Wire Wire Line
	4800 3800 4250 3800
Wire Wire Line
	4250 3800 4250 4100
Wire Wire Line
	4800 4100 4250 4100
Connection ~ 4250 4100
Wire Wire Line
	4250 4100 4250 4150
Wire Wire Line
	4800 4200 4800 4500
Wire Wire Line
	4800 4500 4250 4500
Wire Wire Line
	4250 4500 4250 4450
Wire Wire Line
	4800 3700 3950 3700
$Comp
L ESCX-rescue:GND-power #PWR040
U 1 1 5AE2184B
P 3950 4000
F 0 "#PWR040" H 3950 3750 50  0001 C CNN
F 1 "GND" H 3955 3827 50  0000 C CNN
F 2 "" H 3950 4000 50  0001 C CNN
F 3 "" H 3950 4000 50  0001 C CNN
	1    3950 4000
	1    0    0    -1  
$EndComp
NoConn ~ 4800 3900
NoConn ~ 4800 4000
NoConn ~ 4800 2600
$Comp
L ESCX-rescue:GND-power #PWR044
U 1 1 5AE22ADF
P 5600 4600
F 0 "#PWR044" H 5600 4350 50  0001 C CNN
F 1 "GND" H 5605 4427 50  0000 C CNN
F 2 "" H 5600 4600 50  0001 C CNN
F 3 "" H 5600 4600 50  0001 C CNN
	1    5600 4600
	1    0    0    -1  
$EndComp
$Comp
L ESCX-rescue:C-Device C25
U 1 1 5AE230A9
P 6700 1350
F 0 "C25" H 6750 1450 50  0000 L CNN
F 1 "15n" H 6750 1250 50  0000 L CNN
F 2 "CRF1:SMD-0603_c" H 6738 1200 50  0001 C CNN
F 3 "~" H 6700 1350 50  0001 C CNN
	1    6700 1350
	1    0    0    -1  
$EndComp
$Comp
L ESCX-rescue:C-Device C30
U 1 1 5AE231CE
P 7200 1450
F 0 "C30" H 7250 1550 50  0000 L CNN
F 1 "4.7u_100v" H 7250 1350 50  0000 L CNN
F 2 "CRF1:SMD-1206" H 7238 1300 50  0001 C CNN
F 3 "~" H 7200 1450 50  0001 C CNN
	1    7200 1450
	1    0    0    -1  
$EndComp
$Comp
L ESCX-rescue:C-Device C26
U 1 1 5AE23218
P 6850 2300
F 0 "C26" V 6800 2450 50  0000 C CNN
F 1 "220n" V 6900 2450 50  0000 C CNN
F 2 "CRF1:SMD-0603_c" H 6888 2150 50  0001 C CNN
F 3 "~" H 6850 2300 50  0001 C CNN
	1    6850 2300
	0    1    1    0   
$EndComp
$Comp
L ESCX-rescue:C-Device C29
U 1 1 5AE2407B
P 7050 1900
F 0 "C29" V 7000 2050 50  0000 C CNN
F 1 "100n" V 7000 1750 50  0000 C CNN
F 2 "CRF1:SMD-0603_c" H 7088 1750 50  0001 C CNN
F 3 "~" H 7050 1900 50  0001 C CNN
	1    7050 1900
	0    1    1    0   
$EndComp
$Comp
L ESCX-rescue:C-Device C27
U 1 1 5AE2436F
P 6850 2800
F 0 "C27" V 6800 2950 50  0000 C CNN
F 1 "220n" V 6900 2950 50  0000 C CNN
F 2 "CRF1:SMD-0603_c" H 6888 2650 50  0001 C CNN
F 3 "~" H 6850 2800 50  0001 C CNN
	1    6850 2800
	0    1    1    0   
$EndComp
$Comp
L ESCX-rescue:C-Device C28
U 1 1 5AE243BD
P 6850 3300
F 0 "C28" V 6800 3450 50  0000 C CNN
F 1 "220n" V 6900 3450 50  0000 C CNN
F 2 "CRF1:SMD-0603_c" H 6888 3150 50  0001 C CNN
F 3 "~" H 6850 3300 50  0001 C CNN
	1    6850 3300
	0    1    1    0   
$EndComp
Wire Wire Line
	6400 1500 6500 1500
Wire Wire Line
	6500 1500 6500 1150
Wire Wire Line
	6500 1150 6700 1150
Wire Wire Line
	6700 1150 6700 1200
Wire Wire Line
	6400 1700 6600 1700
Wire Wire Line
	6950 1700 6950 1250
Wire Wire Line
	6950 1250 7200 1250
Wire Wire Line
	7200 1250 7200 1300
Wire Wire Line
	7200 1250 7350 1250
Connection ~ 7200 1250
Text GLabel 7500 1100 2    50   Input ~ 0
SUPPLY
Text HLabel 7500 1250 2    50   Input ~ 0
SUPPLY
Wire Wire Line
	7500 1100 7350 1100
Wire Wire Line
	7350 1100 7350 1250
Connection ~ 7350 1250
Wire Wire Line
	7350 1250 7500 1250
$Comp
L ESCX-rescue:GND-power #PWR048
U 1 1 5AE2656D
P 6700 1500
F 0 "#PWR048" H 6700 1250 50  0001 C CNN
F 1 "GND" H 6700 1400 50  0000 C CNN
F 2 "" H 6700 1500 50  0001 C CNN
F 3 "" H 6700 1500 50  0001 C CNN
	1    6700 1500
	1    0    0    -1  
$EndComp
$Comp
L ESCX-rescue:GND-power #PWR050
U 1 1 5AE265C5
P 7200 1600
F 0 "#PWR050" H 7200 1350 50  0001 C CNN
F 1 "GND" H 7200 1500 50  0000 C CNN
F 2 "" H 7200 1600 50  0001 C CNN
F 3 "" H 7200 1600 50  0001 C CNN
	1    7200 1600
	1    0    0    -1  
$EndComp
Wire Wire Line
	6400 1900 6900 1900
Wire Wire Line
	6400 2000 6550 2000
Wire Wire Line
	7200 1900 7300 1900
Wire Wire Line
	7300 1900 7300 2000
Connection ~ 7300 2000
Wire Wire Line
	7300 2000 7400 2000
Wire Wire Line
	6400 2100 6550 2100
Wire Wire Line
	6550 2100 6550 2000
Connection ~ 6550 2000
Wire Wire Line
	6550 2000 7300 2000
$Comp
L ESCX-rescue:C-Device C31
U 1 1 5AE28CCF
P 7900 2150
F 0 "C31" H 8015 2196 50  0000 L CNN
F 1 "2.2u" H 8015 2105 50  0000 L CNN
F 2 "CRF1:SMD-0603_c" H 7938 2000 50  0001 C CNN
F 3 "~" H 7900 2150 50  0001 C CNN
	1    7900 2150
	1    0    0    -1  
$EndComp
$Comp
L ESCX-rescue:C-Device C32
U 1 1 5AE28DC6
P 8250 2150
F 0 "C32" H 8365 2196 50  0000 L CNN
F 1 "100u" H 8365 2105 50  0000 L CNN
F 2 "w_smd_cap:c_tant_B" H 8288 2000 50  0001 C CNN
F 3 "~" H 8250 2150 50  0001 C CNN
	1    8250 2150
	1    0    0    -1  
$EndComp
$Comp
L ESCX-rescue:+5V-power #PWR051
U 1 1 5AE28E4D
P 8250 1900
F 0 "#PWR051" H 8250 1750 50  0001 C CNN
F 1 "+5V" H 8265 2073 50  0000 C CNN
F 2 "" H 8250 1900 50  0001 C CNN
F 3 "" H 8250 1900 50  0001 C CNN
	1    8250 1900
	1    0    0    -1  
$EndComp
$Comp
L ESCX-rescue:GND-power #PWR052
U 1 1 5AE28EBF
P 8250 2300
F 0 "#PWR052" H 8250 2050 50  0001 C CNN
F 1 "GND" H 8255 2127 50  0000 C CNN
F 2 "" H 8250 2300 50  0001 C CNN
F 3 "" H 8250 2300 50  0001 C CNN
	1    8250 2300
	1    0    0    -1  
$EndComp
Wire Wire Line
	7400 2300 7900 2300
Connection ~ 8250 2300
Connection ~ 7900 2300
Wire Wire Line
	7900 2300 8250 2300
Wire Wire Line
	7900 2000 8250 2000
Wire Wire Line
	8250 1900 8250 2000
Connection ~ 8250 2000
Text HLabel 6400 2400 2    50   Input ~ 0
GH_A
Text HLabel 6400 2600 2    50   Input ~ 0
GL_A
Text HLabel 6400 2700 2    50   Input ~ 0
SL_A
Text HLabel 6400 2900 2    50   Input ~ 0
GH_B
Text HLabel 6400 3100 2    50   Input ~ 0
GL_B
Text HLabel 6400 3200 2    50   Input ~ 0
SL_B
Text HLabel 6400 3400 2    50   Input ~ 0
GH_C
Text HLabel 6400 3600 2    50   Input ~ 0
GL_C
Text HLabel 6400 3700 2    50   Input ~ 0
SL_C
Wire Wire Line
	6400 3800 6700 3800
$Comp
L ESCX-rescue:GND-power #PWR049
U 1 1 5AE2D1C7
P 6700 3800
F 0 "#PWR049" H 6700 3550 50  0001 C CNN
F 1 "GND" H 6705 3627 50  0000 C CNN
F 2 "" H 6700 3800 50  0001 C CNN
F 3 "" H 6700 3800 50  0001 C CNN
	1    6700 3800
	1    0    0    -1  
$EndComp
Wire Wire Line
	6400 4200 6650 4200
Text HLabel 6850 4200 2    50   Input ~ 0
SUPPLY
Wire Wire Line
	6650 4200 6650 4350
Connection ~ 6650 4200
Wire Wire Line
	6650 4200 6850 4200
$Comp
L ESCX-rescue:C-Device C24
U 1 1 5AE2F192
P 6650 4500
F 0 "C24" H 6700 4600 50  0000 L CNN
F 1 "4.7u_100v" H 6700 4400 50  0000 L CNN
F 2 "CRF1:SMD-1206" H 6688 4350 50  0001 C CNN
F 3 "~" H 6650 4500 50  0001 C CNN
	1    6650 4500
	1    0    0    -1  
$EndComp
$Comp
L ESCX-rescue:GND-power #PWR047
U 1 1 5AE2F21E
P 6650 4650
F 0 "#PWR047" H 6650 4400 50  0001 C CNN
F 1 "GND" H 6655 4477 50  0000 C CNN
F 2 "" H 6650 4650 50  0001 C CNN
F 3 "" H 6650 4650 50  0001 C CNN
	1    6650 4650
	1    0    0    -1  
$EndComp
$Comp
L ESCX-rescue:VCC-power #PWR046
U 1 1 5AE2F4B5
P 6650 2200
F 0 "#PWR046" H 6650 2050 50  0001 C CNN
F 1 "VCC" H 6667 2373 50  0000 C CNN
F 2 "" H 6650 2200 50  0001 C CNN
F 3 "" H 6650 2200 50  0001 C CNN
	1    6650 2200
	1    0    0    -1  
$EndComp
Wire Wire Line
	6400 2200 6650 2200
Wire Wire Line
	6400 2300 6700 2300
Wire Wire Line
	6400 2500 7200 2500
Wire Wire Line
	7200 2300 7200 2500
Connection ~ 7200 2500
Wire Wire Line
	7200 2500 7350 2500
Text HLabel 7350 2500 2    50   Input ~ 0
SH_A
Wire Wire Line
	6400 2800 6700 2800
Wire Wire Line
	6400 3000 7200 3000
Wire Wire Line
	7200 3000 7350 3000
Connection ~ 7200 3000
Text HLabel 7350 3000 2    50   Input ~ 0
SH_B
Wire Wire Line
	6400 3300 6700 3300
Wire Wire Line
	6400 3500 7200 3500
Wire Wire Line
	7200 3300 7200 3500
Wire Wire Line
	7200 3500 7350 3500
Connection ~ 7200 3500
Text HLabel 7350 3500 2    50   Input ~ 0
SH_C
$Comp
L ESCX-rescue:+5V-power #PWR053
U 1 1 5AE3BAB9
P 9750 1200
F 0 "#PWR053" H 9750 1050 50  0001 C CNN
F 1 "+5V" H 9765 1373 50  0000 C CNN
F 2 "" H 9750 1200 50  0001 C CNN
F 3 "" H 9750 1200 50  0001 C CNN
	1    9750 1200
	1    0    0    -1  
$EndComp
$Comp
L ESCX-rescue:GND-power #PWR054
U 1 1 5AE3BB9A
P 9750 1600
F 0 "#PWR054" H 9750 1350 50  0001 C CNN
F 1 "GND" H 9755 1427 50  0000 C CNN
F 2 "" H 9750 1600 50  0001 C CNN
F 3 "" H 9750 1600 50  0001 C CNN
	1    9750 1600
	1    0    0    -1  
$EndComp
$Comp
L ESCX-rescue:LED-Device D5
U 1 1 5AE3BC08
P 9750 1350
F 0 "D5" V 9695 1428 50  0000 L CNN
F 1 "TVS 5V" V 9786 1428 50  0000 L CNN
F 2 "w_smd_diode:do214ac" H 9750 1350 50  0001 C CNN
F 3 "~" H 9750 1350 50  0001 C CNN
	1    9750 1350
	0    1    1    0   
$EndComp
Wire Wire Line
	9750 1500 9750 1600
Text HLabel 8900 3900 0    50   Input ~ 0
SENS_SUPPLY
Text HLabel 8900 4400 0    50   Input ~ 0
SENS_A
Text HLabel 8900 4850 0    50   Input ~ 0
SENS_B
Text HLabel 8900 5400 0    50   Input ~ 0
SENS_C
$Comp
L ESCX-rescue:R-Device R17
U 1 1 5AE3D756
P 9450 3900
F 0 "R17" V 9400 4100 50  0000 C CNN
F 1 "39k" V 9450 3900 50  0000 C CNN
F 2 "CRF1:SMD-0603_r" V 9380 3900 50  0001 C CNN
F 3 "~" H 9450 3900 50  0001 C CNN
	1    9450 3900
	0    1    1    0   
$EndComp
$Comp
L ESCX-rescue:R-Device R18
U 1 1 5AE3D7CA
P 9450 4100
F 0 "R18" V 9400 4300 50  0000 C CNN
F 1 "2k2" V 9450 4100 50  0000 C CNN
F 2 "CRF1:SMD-0603_r" V 9380 4100 50  0001 C CNN
F 3 "~" H 9450 4100 50  0001 C CNN
	1    9450 4100
	0    1    1    0   
$EndComp
$Comp
L ESCX-rescue:R-Device R19
U 1 1 5AE3D812
P 9450 4400
F 0 "R19" V 9400 4600 50  0000 C CNN
F 1 "39k" V 9450 4400 50  0000 C CNN
F 2 "CRF1:SMD-0603_r" V 9380 4400 50  0001 C CNN
F 3 "~" H 9450 4400 50  0001 C CNN
	1    9450 4400
	0    1    1    0   
$EndComp
$Comp
L ESCX-rescue:R-Device R20
U 1 1 5AE3D860
P 9450 4550
F 0 "R20" V 9400 4750 50  0000 C CNN
F 1 "2k2" V 9450 4550 50  0000 C CNN
F 2 "CRF1:SMD-0603_r" V 9380 4550 50  0001 C CNN
F 3 "~" H 9450 4550 50  0001 C CNN
	1    9450 4550
	0    1    1    0   
$EndComp
$Comp
L ESCX-rescue:R-Device R21
U 1 1 5AE3D8AE
P 9450 4850
F 0 "R21" V 9400 5050 50  0000 C CNN
F 1 "39k" V 9450 4850 50  0000 C CNN
F 2 "CRF1:SMD-0603_r" V 9380 4850 50  0001 C CNN
F 3 "~" H 9450 4850 50  0001 C CNN
	1    9450 4850
	0    1    1    0   
$EndComp
$Comp
L ESCX-rescue:R-Device R22
U 1 1 5AE3D908
P 9450 5000
F 0 "R22" V 9400 5200 50  0000 C CNN
F 1 "2k2" V 9450 5000 50  0000 C CNN
F 2 "CRF1:SMD-0603_r" V 9380 5000 50  0001 C CNN
F 3 "~" H 9450 5000 50  0001 C CNN
	1    9450 5000
	0    1    1    0   
$EndComp
$Comp
L ESCX-rescue:R-Device R23
U 1 1 5AE3D956
P 9450 5400
F 0 "R23" V 9400 5600 50  0000 C CNN
F 1 "39k" V 9450 5400 50  0000 C CNN
F 2 "CRF1:SMD-0603_r" V 9380 5400 50  0001 C CNN
F 3 "~" H 9450 5400 50  0001 C CNN
	1    9450 5400
	0    1    1    0   
$EndComp
$Comp
L ESCX-rescue:R-Device R24
U 1 1 5AE3D9AC
P 9450 5550
F 0 "R24" V 9400 5750 50  0000 C CNN
F 1 "2k2" V 9450 5550 50  0000 C CNN
F 2 "CRF1:SMD-0603_r" V 9380 5550 50  0001 C CNN
F 3 "~" H 9450 5550 50  0001 C CNN
	1    9450 5550
	0    1    1    0   
$EndComp
Text HLabel 10000 3900 2    50   Input ~ 0
SUPPLY
Text HLabel 10000 4400 2    50   Input ~ 0
SH_A
Text HLabel 10000 4850 2    50   Input ~ 0
SH_B
Text HLabel 10000 5400 2    50   Input ~ 0
SH_C
Wire Wire Line
	8900 3900 9150 3900
Wire Wire Line
	9600 3900 10000 3900
$Comp
L ESCX-rescue:GND-power #PWR055
U 1 1 5AE40CFB
P 10050 4100
F 0 "#PWR055" H 10050 3850 50  0001 C CNN
F 1 "GND" H 10055 3927 50  0000 C CNN
F 2 "" H 10050 4100 50  0001 C CNN
F 3 "" H 10050 4100 50  0001 C CNN
	1    10050 4100
	1    0    0    -1  
$EndComp
$Comp
L ESCX-rescue:GND-power #PWR056
U 1 1 5AE40D4D
P 10050 4550
F 0 "#PWR056" H 10050 4300 50  0001 C CNN
F 1 "GND" H 10055 4377 50  0000 C CNN
F 2 "" H 10050 4550 50  0001 C CNN
F 3 "" H 10050 4550 50  0001 C CNN
	1    10050 4550
	1    0    0    -1  
$EndComp
$Comp
L ESCX-rescue:GND-power #PWR057
U 1 1 5AE40D98
P 10050 5050
F 0 "#PWR057" H 10050 4800 50  0001 C CNN
F 1 "GND" H 10055 4877 50  0000 C CNN
F 2 "" H 10050 5050 50  0001 C CNN
F 3 "" H 10050 5050 50  0001 C CNN
	1    10050 5050
	1    0    0    -1  
$EndComp
$Comp
L ESCX-rescue:GND-power #PWR058
U 1 1 5AE40E59
P 10050 5600
F 0 "#PWR058" H 10050 5350 50  0001 C CNN
F 1 "GND" H 10055 5427 50  0000 C CNN
F 2 "" H 10050 5600 50  0001 C CNN
F 3 "" H 10050 5600 50  0001 C CNN
	1    10050 5600
	1    0    0    -1  
$EndComp
Wire Wire Line
	9300 4100 9150 4100
Wire Wire Line
	9150 4100 9150 3900
Connection ~ 9150 3900
Wire Wire Line
	9150 3900 9300 3900
Wire Wire Line
	9600 4100 10050 4100
Wire Wire Line
	8900 4400 9150 4400
Wire Wire Line
	9600 4400 10000 4400
Wire Wire Line
	9300 4550 9150 4550
Wire Wire Line
	9150 4550 9150 4400
Connection ~ 9150 4400
Wire Wire Line
	9150 4400 9300 4400
Wire Wire Line
	9600 4550 10050 4550
Wire Wire Line
	8900 4850 9200 4850
Wire Wire Line
	9600 4850 10000 4850
Wire Wire Line
	9200 4850 9200 5000
Wire Wire Line
	9200 5000 9300 5000
Connection ~ 9200 4850
Wire Wire Line
	9200 4850 9300 4850
Wire Wire Line
	9600 5000 10050 5000
Wire Wire Line
	10050 5000 10050 5050
Wire Wire Line
	8900 5400 9200 5400
Wire Wire Line
	9200 5400 9200 5550
Wire Wire Line
	9200 5550 9300 5550
Connection ~ 9200 5400
Wire Wire Line
	9200 5400 9300 5400
Wire Wire Line
	9600 5550 10050 5550
Wire Wire Line
	10050 5550 10050 5600
Wire Wire Line
	9600 5400 10000 5400
NoConn ~ 6400 1600
Wire Wire Line
	4800 2100 4400 2100
$Comp
L ESCX-rescue:R-Device R15
U 1 1 5AEBEC40
P 4250 2100
F 0 "R15" V 4150 2100 50  0000 C CNN
F 1 "10k" V 4250 2100 50  0000 C CNN
F 2 "CRF1:SMD-0603_r" V 4180 2100 50  0001 C CNN
F 3 "~" H 4250 2100 50  0001 C CNN
	1    4250 2100
	0    1    1    0   
$EndComp
Wire Wire Line
	4100 2100 4000 2100
Wire Wire Line
	4000 2100 4000 2150
$Comp
L ESCX-rescue:GND-power #PWR041
U 1 1 5AEC18E8
P 4000 2150
F 0 "#PWR041" H 4000 1900 50  0001 C CNN
F 1 "GND" H 4005 1977 50  0000 C CNN
F 2 "" H 4000 2150 50  0001 C CNN
F 3 "" H 4000 2150 50  0001 C CNN
	1    4000 2150
	1    0    0    -1  
$EndComp
Wire Wire Line
	7000 3300 7200 3300
Wire Wire Line
	7000 2800 7200 2800
Wire Wire Line
	7200 2800 7200 3000
Wire Wire Line
	7000 2300 7200 2300
$Comp
L ESCX-rescue:L-Device L1
U 1 1 5B1748EC
P 4900 5800
F 0 "L1" V 5000 5800 50  0000 C CNN
F 1 "2.2u" V 4850 5800 50  0000 C CNN
F 2 "w_smd_inductors:inductor_smd_4.8x2.8mm" H 4900 5800 50  0001 C CNN
F 3 "~" H 4900 5800 50  0001 C CNN
	1    4900 5800
	0    -1   -1   0   
$EndComp
$Comp
L ESCX-rescue:C-Device C22
U 1 1 5B17538B
P 5250 5950
F 0 "C22" H 5350 6050 50  0000 L CNN
F 1 "2.2u" H 5300 5850 50  0000 L CNN
F 2 "CRF1:SMD-1206" H 5288 5800 50  0001 C CNN
F 3 "~" H 5250 5950 50  0001 C CNN
	1    5250 5950
	1    0    0    -1  
$EndComp
Wire Wire Line
	4300 5800 4750 5800
Wire Wire Line
	5050 5800 5100 5800
Connection ~ 5250 5800
Wire Wire Line
	5250 5800 5650 5800
Wire Wire Line
	5250 6100 5650 6100
$Comp
L ESCX-rescue:GND-power #PWR045
U 1 1 5B1822C3
P 5650 6100
F 0 "#PWR045" H 5650 5850 50  0001 C CNN
F 1 "GND" H 5655 5927 50  0000 C CNN
F 2 "" H 5650 6100 50  0001 C CNN
F 3 "" H 5650 6100 50  0001 C CNN
	1    5650 6100
	1    0    0    -1  
$EndComp
Wire Wire Line
	4300 6000 5100 6000
Wire Wire Line
	5100 6000 5100 5800
Connection ~ 5100 5800
Wire Wire Line
	5100 5800 5250 5800
Wire Wire Line
	5100 5800 5100 5550
$Comp
L ESCX-rescue:VCC-power #PWR043
U 1 1 5B189C7E
P 5100 5550
F 0 "#PWR043" H 5100 5400 50  0001 C CNN
F 1 "VCC" H 5117 5723 50  0000 C CNN
F 2 "" H 5100 5550 50  0001 C CNN
F 3 "" H 5100 5550 50  0001 C CNN
	1    5100 5550
	1    0    0    -1  
$EndComp
$Comp
L ESCX-rescue:C-Device C14
U 1 1 5B18A69C
P 3000 5900
F 0 "C14" H 3050 6000 50  0000 L CNN
F 1 "2.2u" H 3050 5800 50  0000 L CNN
F 2 "CRF1:SMD-1206" H 3038 5750 50  0001 C CNN
F 3 "~" H 3000 5900 50  0001 C CNN
	1    3000 5900
	1    0    0    -1  
$EndComp
Wire Wire Line
	3000 5750 3000 5650
Wire Wire Line
	3000 5650 3300 5650
Wire Wire Line
	3300 5650 3300 5600
Wire Wire Line
	3000 6050 3000 6100
Wire Wire Line
	3000 6100 3300 6100
Wire Wire Line
	3300 6100 3300 6150
Wire Wire Line
	3300 5650 3300 5800
Connection ~ 3300 5650
$Comp
L ESCX-rescue:+5V-power #PWR038
U 1 1 5B19FF3F
P 3300 5600
F 0 "#PWR038" H 3300 5450 50  0001 C CNN
F 1 "+5V" H 3315 5773 50  0000 C CNN
F 2 "" H 3300 5600 50  0001 C CNN
F 3 "" H 3300 5600 50  0001 C CNN
	1    3300 5600
	1    0    0    -1  
$EndComp
$Comp
L ESCX-rescue:GND-power #PWR039
U 1 1 5B1A00FF
P 3300 6150
F 0 "#PWR039" H 3300 5900 50  0001 C CNN
F 1 "GND" H 3305 5977 50  0000 C CNN
F 2 "" H 3300 6150 50  0001 C CNN
F 3 "" H 3300 6150 50  0001 C CNN
	1    3300 6150
	1    0    0    -1  
$EndComp
Wire Wire Line
	3600 1250 3850 1250
Wire Wire Line
	3850 1250 3850 1700
Wire Wire Line
	3850 1700 4800 1700
Connection ~ 3600 1250
Wire Wire Line
	3600 1250 3600 1300
$Comp
L bldc:DRV8301 U3
U 1 1 5B1AF007
P 5600 2850
F 0 "U3" H 5600 4487 60  0000 C CNN
F 1 "DRV8301" H 5600 4381 60  0000 C CNN
F 2 "CRF1:HSSOP-36" H 5600 2850 60  0001 C CNN
F 3 "" H 5600 2850 60  0000 C CNN
	1    5600 2850
	1    0    0    -1  
$EndComp
Wire Wire Line
	6400 1800 6600 1800
Wire Wire Line
	6600 1800 6600 1700
Connection ~ 6600 1700
Wire Wire Line
	6600 1700 6950 1700
Wire Wire Line
	6400 4100 6400 4000
Connection ~ 6400 3800
Connection ~ 6400 3900
Wire Wire Line
	6400 3900 6400 3800
Connection ~ 6400 4000
Wire Wire Line
	6400 4000 6400 3900
$Comp
L ESCX-rescue:GND-power #PWR042
U 1 1 5B1CC3FF
P 4250 4500
F 0 "#PWR042" H 4250 4250 50  0001 C CNN
F 1 "GND" H 4255 4327 50  0000 C CNN
F 2 "" H 4250 4500 50  0001 C CNN
F 3 "" H 4250 4500 50  0001 C CNN
	1    4250 4500
	1    0    0    -1  
$EndComp
Connection ~ 4250 4500
$Comp
L ESCX-rescue:D_Schottky-Device D4
U 1 1 5B1CCAA1
P 7400 2150
F 0 "D4" H 7400 2250 50  0000 L CNN
F 1 "DIODE" H 7300 2050 50  0000 L CNN
F 2 "Diode_SMD:D_SMA_Handsoldering" H 7400 2150 50  0001 C CNN
F 3 "~" H 7400 2150 50  0001 C CNN
	1    7400 2150
	0    1    1    0   
$EndComp
$Comp
L ESCX-rescue:L-Device L2
U 1 1 5B1CCF4D
P 7650 2000
F 0 "L2" V 7750 2000 50  0000 C CNN
F 1 "22u" V 7600 2000 50  0000 C CNN
F 2 "w_smd_inductors:inductor_smd_8x5mm" H 7650 2000 50  0001 C CNN
F 3 "~" H 7650 2000 50  0001 C CNN
	1    7650 2000
	0    -1   -1   0   
$EndComp
Wire Wire Line
	7400 2000 7500 2000
Connection ~ 7400 2000
Wire Wire Line
	7800 2000 7900 2000
Connection ~ 7900 2000
$Comp
L bldc:LM3671 U2
U 1 1 5B1E0094
P 4000 5900
F 0 "U2" H 4000 6225 50  0000 C CNN
F 1 "LM3671" H 4000 6134 50  0000 C CNN
F 2 "Package_TO_SOT_SMD:SOT-23" H 4000 5900 50  0001 C CNN
F 3 "" H 4000 5900 50  0001 C CNN
	1    4000 5900
	1    0    0    -1  
$EndComp
Wire Wire Line
	3300 5800 3550 5800
Wire Wire Line
	3300 6100 3300 5900
Wire Wire Line
	3300 5900 3700 5900
Connection ~ 3300 6100
Wire Wire Line
	3550 5800 3550 6000
Wire Wire Line
	3550 6000 3700 6000
Connection ~ 3550 5800
Wire Wire Line
	3550 5800 3700 5800
$Comp
L ESCX-rescue:CP-Device C23
U 1 1 5B1EA50A
P 5650 5950
F 0 "C23" H 5768 5996 50  0000 L CNN
F 1 "100u" H 5768 5905 50  0000 L CNN
F 2 "w_smd_cap:c_tant_B" H 5688 5800 50  0001 C CNN
F 3 "~" H 5650 5950 50  0001 C CNN
	1    5650 5950
	1    0    0    -1  
$EndComp
Connection ~ 5650 6100
$EndSCHEMATC
