EESchema Schematic File Version 4
LIBS:ESCX-cache
EELAYER 26 0
EELAYER END
$Descr A4 11693 8268
encoding utf-8
Sheet 7 7
Title "VESC 6.4 redraw"
Date "2018-06-03"
Rev "6.4"
Comp "LI XITONG"
Comment1 ""
Comment2 ""
Comment3 ""
Comment4 ""
$EndDescr
Text HLabel 5150 3500 0    50   Input ~ 0
CE
Text HLabel 5150 3400 0    50   Input ~ 0
CSN
Text HLabel 5150 3300 0    50   Input ~ 0
SCK
Text HLabel 5150 3100 0    50   Input ~ 0
MISO
Text HLabel 5150 3200 0    50   Input ~ 0
MOSI
$Comp
L crf_2:nRF24L01P U9
U 1 1 5AE56EC2
P 5750 3200
F 0 "U9" H 6300 3950 50  0000 L CNN
F 1 "nRF24L01P" H 6250 2550 50  0000 L CNN
F 2 "Package_DFN_QFN:QFN-20-1EP_4x4mm_P0.5mm_EP2.5x2.5mm" H 5950 4000 50  0001 L CIN
F 3 "http://www.nordicsemi.com/eng/content/download/2726/34069/file/nRF24L01P_Product_Specification_1_0.pdf" H 5750 3300 50  0001 C CNN
	1    5750 3200
	1    0    0    -1  
$EndComp
Text HLabel 5500 3900 3    50   Input ~ 0
IRQ
$Comp
L ESCX-rescue:C-Device C56
U 1 1 5AE886AD
P 5650 4500
F 0 "C56" H 5500 4600 50  0000 L CNN
F 1 "100n" H 5450 4400 50  0000 L CNN
F 2 "CRF1:SMD-0603_c" H 5688 4350 50  0001 C CNN
F 3 "~" H 5650 4500 50  0001 C CNN
	1    5650 4500
	1    0    0    -1  
$EndComp
$Comp
L ESCX-rescue:C-Device C58
U 1 1 5AE886CF
P 6700 4300
F 0 "C58" V 6650 4500 50  0000 C CNN
F 1 "15p" V 6600 4200 50  0000 C CNN
F 2 "CRF1:SMD-0603_c" H 6738 4150 50  0001 C CNN
F 3 "~" H 6700 4300 50  0001 C CNN
	1    6700 4300
	0    1    1    0   
$EndComp
$Comp
L ESCX-rescue:C-Device C59
U 1 1 5AE8871F
P 6700 4900
F 0 "C59" V 6600 5150 50  0000 C CNN
F 1 "15p" V 6550 4850 50  0000 C CNN
F 2 "CRF1:SMD-0603_c" H 6738 4750 50  0001 C CNN
F 3 "~" H 6700 4900 50  0001 C CNN
	1    6700 4900
	0    1    1    0   
$EndComp
$Comp
L crf_1:CRYSTAL_GROUND_PIN X2
U 1 1 5AE887EC
P 6550 4600
F 0 "X2" V 6500 4700 60  0000 L CNN
F 1 "16M" V 6600 4700 60  0000 L CNN
F 2 "CRF1:Crystal_5x3mm" H 6550 4600 60  0001 C CNN
F 3 "" H 6550 4600 60  0000 C CNN
	1    6550 4600
	0    1    1    0   
$EndComp
$Comp
L ESCX-rescue:GND-power #PWR087
U 1 1 5AE88987
P 6850 4900
F 0 "#PWR087" H 6850 4650 50  0001 C CNN
F 1 "GND" H 6855 4727 50  0000 C CNN
F 2 "" H 6850 4900 50  0001 C CNN
F 3 "" H 6850 4900 50  0001 C CNN
	1    6850 4900
	1    0    0    -1  
$EndComp
$Comp
L ESCX-rescue:GND-power #PWR083
U 1 1 5AE889A3
P 5650 4850
F 0 "#PWR083" H 5650 4600 50  0001 C CNN
F 1 "GND" H 5655 4677 50  0000 C CNN
F 2 "" H 5650 4850 50  0001 C CNN
F 3 "" H 5650 4850 50  0001 C CNN
	1    5650 4850
	1    0    0    -1  
$EndComp
Wire Wire Line
	5650 3900 5650 4200
Wire Wire Line
	5650 4650 5650 4800
Wire Wire Line
	5800 3900 5800 4800
Wire Wire Line
	5800 4800 5650 4800
Connection ~ 5650 4800
Wire Wire Line
	5650 4800 5650 4850
Wire Wire Line
	5950 3900 5950 4900
Wire Wire Line
	5950 4900 6550 4900
Connection ~ 6550 4900
Wire Wire Line
	6100 3900 6100 4300
Wire Wire Line
	6100 4300 6550 4300
Connection ~ 6550 4300
$Comp
L ESCX-rescue:GND-power #PWR084
U 1 1 5AE88A51
P 6200 4650
F 0 "#PWR084" H 6200 4400 50  0001 C CNN
F 1 "GND" H 6205 4477 50  0000 C CNN
F 2 "" H 6200 4650 50  0001 C CNN
F 3 "" H 6200 4650 50  0001 C CNN
	1    6200 4650
	1    0    0    -1  
$EndComp
Wire Wire Line
	6200 4650 6200 4600
Wire Wire Line
	6200 4600 6300 4600
Wire Wire Line
	6850 4300 6850 4900
Connection ~ 6850 4900
$Comp
L ESCX-rescue:INDUCTOR-pspice L3
U 1 1 5AE892B3
P 7150 3100
F 0 "L3" V 7104 3178 50  0000 L CNN
F 1 "8.2n" V 7195 3178 50  0000 L CNN
F 2 "w_smd_inductors:inductor_smd_4.8x2.8mm" H 7150 3100 50  0001 C CNN
F 3 "" H 7150 3100 50  0001 C CNN
	1    7150 3100
	0    1    1    0   
$EndComp
$Comp
L ESCX-rescue:INDUCTOR-pspice L4
U 1 1 5AE8932A
P 7800 2850
F 0 "L4" H 7800 2672 50  0000 C CNN
F 1 "3.9n" H 7800 2763 50  0000 C CNN
F 2 "w_smd_inductors:inductor_smd_4.8x2.8mm" H 7800 2850 50  0001 C CNN
F 3 "" H 7800 2850 50  0001 C CNN
	1    7800 2850
	-1   0    0    1   
$EndComp
$Comp
L ESCX-rescue:INDUCTOR-pspice L5
U 1 1 5AE8937C
P 7800 3350
F 0 "L5" H 7800 3172 50  0000 C CNN
F 1 "2.7n" H 7800 3263 50  0000 C CNN
F 2 "w_smd_inductors:inductor_smd_4.8x2.8mm" H 7800 3350 50  0001 C CNN
F 3 "" H 7800 3350 50  0001 C CNN
	1    7800 3350
	-1   0    0    1   
$EndComp
Wire Wire Line
	6600 3150 6950 3150
Wire Wire Line
	6950 3150 6950 3350
Wire Wire Line
	6950 3350 7150 3350
Wire Wire Line
	7150 3350 7550 3350
Connection ~ 7150 3350
Wire Wire Line
	6600 3050 6950 3050
Wire Wire Line
	6950 3050 6950 2850
Wire Wire Line
	6950 2850 7150 2850
Wire Wire Line
	7150 2850 7550 2850
Connection ~ 7150 2850
Wire Wire Line
	6600 3250 6850 3250
Wire Wire Line
	6850 3250 6850 3550
Wire Wire Line
	6850 3550 7550 3550
Wire Wire Line
	8200 3550 8200 3350
Wire Wire Line
	8200 3350 8050 3350
$Comp
L ESCX-rescue:C-Device C61
U 1 1 5AE89FCA
P 7550 3700
F 0 "C61" H 7665 3746 50  0000 L CNN
F 1 "2.2n" H 7665 3655 50  0000 L CNN
F 2 "CRF1:SMD-0603_c" H 7588 3550 50  0001 C CNN
F 3 "~" H 7550 3700 50  0001 C CNN
	1    7550 3700
	1    0    0    -1  
$EndComp
Connection ~ 7550 3550
Wire Wire Line
	7550 3550 8000 3550
$Comp
L ESCX-rescue:C-Device C62
U 1 1 5AE89FFC
P 8000 3700
F 0 "C62" H 8115 3746 50  0000 L CNN
F 1 "4.7p" H 8115 3655 50  0000 L CNN
F 2 "CRF1:SMD-0603_c" H 8038 3550 50  0001 C CNN
F 3 "~" H 8000 3700 50  0001 C CNN
	1    8000 3700
	1    0    0    -1  
$EndComp
Connection ~ 8000 3550
Wire Wire Line
	8000 3550 8200 3550
$Comp
L ESCX-rescue:GND-power #PWR088
U 1 1 5AE8A097
P 7550 3850
F 0 "#PWR088" H 7550 3600 50  0001 C CNN
F 1 "GND" H 7555 3677 50  0000 C CNN
F 2 "" H 7550 3850 50  0001 C CNN
F 3 "" H 7550 3850 50  0001 C CNN
	1    7550 3850
	1    0    0    -1  
$EndComp
$Comp
L ESCX-rescue:GND-power #PWR089
U 1 1 5AE8A0BD
P 8000 3850
F 0 "#PWR089" H 8000 3600 50  0001 C CNN
F 1 "GND" H 8005 3677 50  0000 C CNN
F 2 "" H 8000 3850 50  0001 C CNN
F 3 "" H 8000 3850 50  0001 C CNN
	1    8000 3850
	1    0    0    -1  
$EndComp
$Comp
L ESCX-rescue:C-Device C64
U 1 1 5AE8A769
P 8600 3050
F 0 "C64" H 8715 3096 50  0000 L CNN
F 1 "1p" H 8715 3005 50  0000 L CNN
F 2 "CRF1:SMD-0603_c" H 8638 2900 50  0001 C CNN
F 3 "~" H 8600 3050 50  0001 C CNN
	1    8600 3050
	1    0    0    -1  
$EndComp
$Comp
L ESCX-rescue:C-Device C63
U 1 1 5AE8A7AF
P 8350 2850
F 0 "C63" V 8098 2850 50  0000 C CNN
F 1 "1.5p" V 8189 2850 50  0000 C CNN
F 2 "CRF1:SMD-0603_c" H 8388 2700 50  0001 C CNN
F 3 "~" H 8350 2850 50  0001 C CNN
	1    8350 2850
	0    1    1    0   
$EndComp
$Comp
L ESCX-rescue:C-Device C60
U 1 1 5AE8A9B2
P 6750 2550
F 0 "C60" H 6865 2596 50  0000 L CNN
F 1 "100n" H 6865 2505 50  0000 L CNN
F 2 "CRF1:SMD-0603_c" H 6788 2400 50  0001 C CNN
F 3 "~" H 6750 2550 50  0001 C CNN
	1    6750 2550
	1    0    0    -1  
$EndComp
Wire Wire Line
	6600 2950 6750 2950
Wire Wire Line
	6750 2950 6750 2750
Wire Wire Line
	6750 2750 6850 2750
Wire Wire Line
	6850 2750 6850 2800
Connection ~ 6750 2750
Wire Wire Line
	6750 2750 6750 2700
$Comp
L ESCX-rescue:GND-power #PWR086
U 1 1 5AE8B277
P 6850 2800
F 0 "#PWR086" H 6850 2550 50  0001 C CNN
F 1 "GND" H 6855 2627 50  0000 C CNN
F 2 "" H 6850 2800 50  0001 C CNN
F 3 "" H 6850 2800 50  0001 C CNN
	1    6850 2800
	1    0    0    -1  
$EndComp
Wire Wire Line
	6600 2850 6600 2300
Wire Wire Line
	6600 2300 6750 2300
Wire Wire Line
	6750 2300 6750 2400
$Comp
L ESCX-rescue:VCC-power #PWR085
U 1 1 5AE8BC64
P 6750 2300
F 0 "#PWR085" H 6750 2150 50  0001 C CNN
F 1 "VCC" H 6767 2473 50  0000 C CNN
F 2 "" H 6750 2300 50  0001 C CNN
F 3 "" H 6750 2300 50  0001 C CNN
	1    6750 2300
	1    0    0    -1  
$EndComp
Connection ~ 6750 2300
Wire Wire Line
	8050 2850 8200 2850
Wire Wire Line
	8500 2850 8600 2850
Wire Wire Line
	8600 2850 8600 2900
$Comp
L ESCX-rescue:GND-power #PWR090
U 1 1 5AE8C980
P 8600 3200
F 0 "#PWR090" H 8600 2950 50  0001 C CNN
F 1 "GND" H 8605 3027 50  0000 C CNN
F 2 "" H 8600 3200 50  0001 C CNN
F 3 "" H 8600 3200 50  0001 C CNN
	1    8600 3200
	1    0    0    -1  
$EndComp
Wire Wire Line
	8600 2850 9350 2850
Wire Wire Line
	9350 2850 9350 3100
Connection ~ 8600 2850
$Comp
L ESCX-rescue:C-Device C55
U 1 1 5AE8D372
P 5200 2250
F 0 "C55" H 5250 2350 50  0000 L CNN
F 1 "100n" H 5250 2150 50  0000 L CNN
F 2 "CRF1:SMD-0603_c" H 5238 2100 50  0001 C CNN
F 3 "~" H 5200 2250 50  0001 C CNN
	1    5200 2250
	1    0    0    -1  
$EndComp
$Comp
L ESCX-rescue:C-Device C57
U 1 1 5AE8D986
P 5800 2150
F 0 "C57" V 5850 2200 50  0000 L CNN
F 1 "100n" V 5850 1900 50  0000 L CNN
F 2 "CRF1:SMD-0603_c" H 5838 2000 50  0001 C CNN
F 3 "~" H 5800 2150 50  0001 C CNN
	1    5800 2150
	1    0    0    -1  
$EndComp
$Comp
L ESCX-rescue:R-Device R42
U 1 1 5AE8DA0C
P 6100 2150
F 0 "R42" H 6170 2196 50  0000 L CNN
F 1 "22k" H 6170 2105 50  0000 L CNN
F 2 "CRF1:SMD-0603_r" V 6030 2150 50  0001 C CNN
F 3 "~" H 6100 2150 50  0001 C CNN
	1    6100 2150
	1    0    0    -1  
$EndComp
$Comp
L ESCX-rescue:VCC-power #PWR080
U 1 1 5AE8DAB5
P 5200 1600
F 0 "#PWR080" H 5200 1450 50  0001 C CNN
F 1 "VCC" H 5217 1773 50  0000 C CNN
F 2 "" H 5200 1600 50  0001 C CNN
F 3 "" H 5200 1600 50  0001 C CNN
	1    5200 1600
	1    0    0    -1  
$EndComp
$Comp
L ESCX-rescue:GND-power #PWR081
U 1 1 5AE8DB54
P 5200 2500
F 0 "#PWR081" H 5200 2250 50  0001 C CNN
F 1 "GND" H 5205 2327 50  0000 C CNN
F 2 "" H 5200 2500 50  0001 C CNN
F 3 "" H 5200 2500 50  0001 C CNN
	1    5200 2500
	1    0    0    -1  
$EndComp
Wire Wire Line
	5200 1600 5200 1650
Wire Wire Line
	5600 2400 5600 1850
Wire Wire Line
	6100 1850 6100 2000
Wire Wire Line
	6100 2300 6100 2400
Wire Wire Line
	6000 2400 6000 1850
Wire Wire Line
	5600 1850 5700 1850
Connection ~ 6000 1850
Wire Wire Line
	6000 1850 6100 1850
Wire Wire Line
	5900 2400 5900 1650
Wire Wire Line
	5900 1650 5200 1650
Connection ~ 5200 1650
Wire Wire Line
	5200 1650 5200 2100
Wire Wire Line
	5800 1850 5800 2000
Connection ~ 5800 1850
Wire Wire Line
	5800 1850 6000 1850
Wire Wire Line
	5800 2300 5800 2400
Wire Wire Line
	5700 2400 5700 1850
Connection ~ 5700 1850
Wire Wire Line
	5700 1850 5800 1850
Wire Wire Line
	5200 2400 5200 2450
Wire Wire Line
	5200 2450 5450 2450
Wire Wire Line
	5450 2450 5450 1850
Wire Wire Line
	5450 1850 5600 1850
Connection ~ 5200 2450
Wire Wire Line
	5200 2450 5200 2500
Connection ~ 5600 1850
$Comp
L ESCX-rescue:GND-power #PWR091
U 1 1 5B1F54BB
P 9350 3100
F 0 "#PWR091" H 9350 2850 50  0001 C CNN
F 1 "GND" H 9355 2927 50  0000 C CNN
F 2 "" H 9350 3100 50  0001 C CNN
F 3 "" H 9350 3100 50  0001 C CNN
	1    9350 3100
	1    0    0    -1  
$EndComp
Wire Wire Line
	5650 4200 5200 4200
Wire Wire Line
	5200 4200 5200 4150
Connection ~ 5650 4200
Wire Wire Line
	5650 4200 5650 4350
$Comp
L ESCX-rescue:VCC-power #PWR082
U 1 1 5B1F676F
P 5200 4150
F 0 "#PWR082" H 5200 4000 50  0001 C CNN
F 1 "VCC" H 5217 4323 50  0000 C CNN
F 2 "" H 5200 4150 50  0001 C CNN
F 3 "" H 5200 4150 50  0001 C CNN
	1    5200 4150
	1    0    0    -1  
$EndComp
Text Notes 9200 3450 0    50   ~ 0
warning! has some error
$EndSCHEMATC
