EESchema Schematic File Version 4
LIBS:ESCX-cache
EELAYER 26 0
EELAYER END
$Descr A4 11693 8268
encoding utf-8
Sheet 4 7
Title "VESC 6.4 redraw"
Date "2018-06-03"
Rev "6.4"
Comp "LI XITONG"
Comment1 ""
Comment2 ""
Comment3 ""
Comment4 ""
$EndDescr
$Comp
L ESCX-rescue:AD8418-Amplifier_Current U5
U 1 1 5AE64709
P 5100 2850
F 0 "U5" H 4650 3250 50  0000 C CNN
F 1 "AD8418" H 4950 2500 50  0000 C CNN
F 2 "CRF1:SOIC-8-W" H 5150 2500 50  0001 C CNN
F 3 "http://www.analog.com/media/en/technical-documentation/data-sheets/AD8418.pdf" H 5750 2150 50  0001 C CNN
	1    5100 2850
	-1   0    0    -1  
$EndComp
$Comp
L ESCX-rescue:R-Device R34
U 1 1 5AE2966E
P 6100 1600
F 0 "R34" V 6000 1600 50  0000 C CNN
F 1 "4.7R" V 6100 1600 50  0000 C CNN
F 2 "CRF1:SMD-0603_r" V 6030 1600 50  0001 C CNN
F 3 "~" H 6100 1600 50  0001 C CNN
	1    6100 1600
	0    1    1    0   
$EndComp
$Comp
L ESCX-rescue:R-Device R31
U 1 1 5AE296C9
P 5100 2150
F 0 "R31" V 4893 2150 50  0000 C CNN
F 1 "0.0005R" V 4984 2150 50  0000 C CNN
F 2 "CRF1:WSLP2726" V 5030 2150 50  0001 C CNN
F 3 "~" H 5100 2150 50  0001 C CNN
	1    5100 2150
	0    1    1    0   
$EndComp
$Comp
L ESCX-rescue:R-Device R35
U 1 1 5AE2980A
P 6150 3200
F 0 "R35" V 6050 3200 50  0000 C CNN
F 1 "4.7R" V 6150 3200 50  0000 C CNN
F 2 "CRF1:SMD-0603_r" V 6080 3200 50  0001 C CNN
F 3 "~" H 6150 3200 50  0001 C CNN
	1    6150 3200
	0    1    1    0   
$EndComp
Wire Wire Line
	6700 1800 6700 2150
Wire Wire Line
	6300 3200 6400 3200
Wire Wire Line
	6250 1600 6400 1600
Wire Wire Line
	5250 2150 6700 2150
Connection ~ 6700 2150
Wire Wire Line
	6700 2150 6700 2500
Wire Wire Line
	5250 2150 5250 2450
Wire Wire Line
	5250 2450 5300 2450
Connection ~ 5250 2150
Wire Wire Line
	4950 2150 4950 2450
Wire Wire Line
	4950 2450 4900 2450
Wire Wire Line
	4650 2150 4950 2150
Connection ~ 4950 2150
Wire Wire Line
	6000 3200 6000 2950
Text HLabel 6000 2950 1    50   Input ~ 0
GL_B
Wire Wire Line
	6350 2500 6700 2500
Connection ~ 6700 2500
Wire Wire Line
	6700 2500 6700 3000
Text HLabel 6350 2500 0    50   Input ~ 0
SH_B
Wire Wire Line
	6700 3400 6700 3700
Text HLabel 6350 3700 0    50   Input ~ 0
SL_B
Wire Wire Line
	6350 3700 6700 3700
Connection ~ 6700 3700
Wire Wire Line
	6700 3700 6700 3850
$Comp
L ESCX-rescue:C-Device C41
U 1 1 5AE2A0DC
P 7150 2500
F 0 "C41" V 7100 2300 50  0000 L CNN
F 1 "4.7u_100v" V 7100 2600 50  0000 L CNN
F 2 "CRF1:SMD-1206" H 7188 2350 50  0001 C CNN
F 3 "~" H 7150 2500 50  0001 C CNN
	1    7150 2500
	1    0    0    -1  
$EndComp
$Comp
L ESCX-rescue:C-Device C42
U 1 1 5AE2A12A
P 7500 2500
F 0 "C42" V 7450 2300 50  0000 L CNN
F 1 "4.7u_100v" V 7450 2600 50  0000 L CNN
F 2 "CRF1:SMD-1206" H 7538 2350 50  0001 C CNN
F 3 "~" H 7500 2500 50  0001 C CNN
	1    7500 2500
	1    0    0    -1  
$EndComp
Wire Wire Line
	6700 3850 7150 3850
Wire Wire Line
	7150 3850 7150 2750
Connection ~ 6700 3850
Wire Wire Line
	6700 1400 7150 1400
Wire Wire Line
	7150 1400 7150 2350
Wire Wire Line
	7150 1400 7500 1400
Wire Wire Line
	7500 1400 7500 2350
Connection ~ 7150 1400
Wire Wire Line
	7500 2650 7500 2750
Wire Wire Line
	7500 2750 7150 2750
Connection ~ 7150 2750
Wire Wire Line
	7150 2750 7150 2650
Text HLabel 5800 1600 0    50   Input ~ 0
GH_B
Wire Wire Line
	5950 1600 5800 1600
Wire Wire Line
	5500 2850 5500 2950
Wire Wire Line
	5500 3550 5250 3550
Connection ~ 5500 2950
Wire Wire Line
	5500 2950 5500 3050
Connection ~ 5500 3050
Wire Wire Line
	5500 3050 5500 3550
$Comp
L ESCX-rescue:C-Device C39
U 1 1 5AE2BD9D
P 5100 3550
F 0 "C39" V 5150 3700 50  0000 C CNN
F 1 "2.2u" V 5150 3400 50  0000 C CNN
F 2 "CRF1:SMD-0603_c" H 5138 3400 50  0001 C CNN
F 3 "~" H 5100 3550 50  0001 C CNN
	1    5100 3550
	0    1    1    0   
$EndComp
Wire Wire Line
	4700 3550 4950 3550
Connection ~ 4700 2950
Wire Wire Line
	4700 2950 4700 3250
$Comp
L ESCX-rescue:GND-power #PWR064
U 1 1 5AE2C2C7
P 4450 3050
F 0 "#PWR064" H 4450 2800 50  0001 C CNN
F 1 "GND" H 4455 2877 50  0000 C CNN
F 2 "" H 4450 3050 50  0001 C CNN
F 3 "" H 4450 3050 50  0001 C CNN
	1    4450 3050
	1    0    0    -1  
$EndComp
$Comp
L ESCX-rescue:VCC-power #PWR065
U 1 1 5AE2C3FE
P 5500 2850
F 0 "#PWR065" H 5500 2700 50  0001 C CNN
F 1 "VCC" H 5517 3023 50  0000 C CNN
F 2 "" H 5500 2850 50  0001 C CNN
F 3 "" H 5500 2850 50  0001 C CNN
	1    5500 2850
	1    0    0    -1  
$EndComp
Wire Wire Line
	4450 3050 4450 2950
Wire Wire Line
	4450 2950 4700 2950
Wire Wire Line
	5100 3250 4700 3250
Connection ~ 4700 3250
Wire Wire Line
	4700 3250 4700 3550
Text Label 4700 2850 2    50   ~ 0
C_B
$Comp
L ESCX-rescue:AD8418-Amplifier_Current U4
U 1 1 5AE2EF30
P 1400 2900
F 0 "U4" H 1100 3300 50  0000 C CNN
F 1 "AD8418" H 1250 2500 50  0000 C CNN
F 2 "CRF1:SOIC-8-W" H 1450 2550 50  0001 C CNN
F 3 "http://www.analog.com/media/en/technical-documentation/data-sheets/AD8418.pdf" H 2050 2200 50  0001 C CNN
	1    1400 2900
	-1   0    0    -1  
$EndComp
$Comp
L ESCX-rescue:R-Device R26
U 1 1 5AE2EF42
P 2400 1650
F 0 "R26" V 2500 1650 50  0000 C CNN
F 1 "4.7R" V 2400 1650 50  0000 C CNN
F 2 "CRF1:SMD-0603_r" V 2330 1650 50  0001 C CNN
F 3 "~" H 2400 1650 50  0001 C CNN
	1    2400 1650
	0    1    1    0   
$EndComp
$Comp
L ESCX-rescue:R-Device R25
U 1 1 5AE2EF48
P 1400 2200
F 0 "R25" V 1193 2200 50  0000 C CNN
F 1 "0.0005R" V 1284 2200 50  0000 C CNN
F 2 "CRF1:WSLP2726" V 1330 2200 50  0001 C CNN
F 3 "~" H 1400 2200 50  0001 C CNN
	1    1400 2200
	0    1    1    0   
$EndComp
$Comp
L ESCX-rescue:R-Device R27
U 1 1 5AE2EF4E
P 2450 3250
F 0 "R27" V 2550 3250 50  0000 C CNN
F 1 "4.7R" V 2450 3250 50  0000 C CNN
F 2 "CRF1:SMD-0603_r" V 2380 3250 50  0001 C CNN
F 3 "~" H 2450 3250 50  0001 C CNN
	1    2450 3250
	0    1    1    0   
$EndComp
Wire Wire Line
	3000 1850 3000 2200
Wire Wire Line
	2600 3250 2700 3250
Wire Wire Line
	2550 1650 2700 1650
Wire Wire Line
	1550 2200 3000 2200
Connection ~ 3000 2200
Wire Wire Line
	3000 2200 3000 2550
Wire Wire Line
	1550 2200 1550 2500
Wire Wire Line
	1550 2500 1600 2500
Connection ~ 1550 2200
Wire Wire Line
	1250 2200 1250 2500
Wire Wire Line
	1250 2500 1200 2500
Wire Wire Line
	950  2200 1250 2200
Connection ~ 1250 2200
Wire Wire Line
	2300 3250 2300 3000
Text HLabel 2300 3000 1    50   Input ~ 0
GL_A
Wire Wire Line
	2650 2550 3000 2550
Connection ~ 3000 2550
Wire Wire Line
	3000 2550 3000 3050
Text HLabel 2650 2550 0    50   Input ~ 0
SH_A
Wire Wire Line
	3000 3450 3000 3750
Text HLabel 2650 3750 0    50   Input ~ 0
SL_A
Wire Wire Line
	2650 3750 3000 3750
Connection ~ 3000 3750
Wire Wire Line
	3000 3750 3000 3900
$Comp
L ESCX-rescue:C-Device C37
U 1 1 5AE2EF6C
P 3450 2550
F 0 "C37" V 3350 2350 50  0000 L CNN
F 1 "4.7u_100v" V 3400 2650 50  0000 L CNN
F 2 "CRF1:SMD-1206" H 3488 2400 50  0001 C CNN
F 3 "~" H 3450 2550 50  0001 C CNN
	1    3450 2550
	1    0    0    -1  
$EndComp
$Comp
L ESCX-rescue:C-Device C38
U 1 1 5AE2EF72
P 3800 2550
F 0 "C38" V 3750 2350 50  0000 L CNN
F 1 "4.7u_100v" V 3750 2650 50  0000 L CNN
F 2 "CRF1:SMD-1206" H 3838 2400 50  0001 C CNN
F 3 "~" H 3800 2550 50  0001 C CNN
	1    3800 2550
	1    0    0    -1  
$EndComp
Wire Wire Line
	3000 3900 3450 3900
Wire Wire Line
	3450 3900 3450 2800
Connection ~ 3000 3900
Wire Wire Line
	3000 3900 3000 4250
Wire Wire Line
	3000 1450 3450 1450
Wire Wire Line
	3450 1450 3450 2400
Wire Wire Line
	3450 1450 3800 1450
Wire Wire Line
	3800 1450 3800 2400
Connection ~ 3450 1450
Wire Wire Line
	3800 2700 3800 2800
Wire Wire Line
	3800 2800 3450 2800
Connection ~ 3450 2800
Wire Wire Line
	3450 2800 3450 2700
Text HLabel 2100 1650 0    50   Input ~ 0
GH_A
Wire Wire Line
	2250 1650 2100 1650
Wire Wire Line
	1800 2900 1800 3000
Wire Wire Line
	1800 3600 1550 3600
Wire Wire Line
	1800 3100 1800 3600
$Comp
L ESCX-rescue:C-Device C33
U 1 1 5AE2EF8E
P 1400 3600
F 0 "C33" V 1450 3750 50  0000 C CNN
F 1 "2.2u" V 1450 3450 50  0000 C CNN
F 2 "CRF1:SMD-0603_c" H 1438 3450 50  0001 C CNN
F 3 "~" H 1400 3600 50  0001 C CNN
	1    1400 3600
	0    1    1    0   
$EndComp
Wire Wire Line
	1000 3600 1250 3600
Connection ~ 1000 3000
Wire Wire Line
	1000 3000 1000 3300
$Comp
L ESCX-rescue:GND-power #PWR059
U 1 1 5AE2EF97
P 750 3100
F 0 "#PWR059" H 750 2850 50  0001 C CNN
F 1 "GND" H 755 2927 50  0000 C CNN
F 2 "" H 750 3100 50  0001 C CNN
F 3 "" H 750 3100 50  0001 C CNN
	1    750  3100
	1    0    0    -1  
$EndComp
$Comp
L ESCX-rescue:VCC-power #PWR060
U 1 1 5AE2EF9D
P 1800 2900
F 0 "#PWR060" H 1800 2750 50  0001 C CNN
F 1 "VCC" H 1817 3073 50  0000 C CNN
F 2 "" H 1800 2900 50  0001 C CNN
F 3 "" H 1800 2900 50  0001 C CNN
	1    1800 2900
	1    0    0    -1  
$EndComp
Wire Wire Line
	750  3100 750  3000
Wire Wire Line
	750  3000 1000 3000
Wire Wire Line
	1400 3300 1000 3300
Connection ~ 1000 3300
Wire Wire Line
	1000 3300 1000 3600
Text Label 1000 2900 2    50   ~ 0
C_A
$Comp
L ESCX-rescue:AD8418-Amplifier_Current U6
U 1 1 5AE31059
P 8550 2900
F 0 "U6" H 8100 3300 50  0000 C CNN
F 1 "AD8418" H 8400 2550 50  0000 C CNN
F 2 "CRF1:SOIC-8-W" H 8600 2550 50  0001 C CNN
F 3 "http://www.analog.com/media/en/technical-documentation/data-sheets/AD8418.pdf" H 9200 2200 50  0001 C CNN
	1    8550 2900
	-1   0    0    -1  
$EndComp
$Comp
L ESCX-rescue:R-Device R37
U 1 1 5AE3106B
P 9550 1650
F 0 "R37" V 9450 1650 50  0000 C CNN
F 1 "4.7R" V 9550 1650 50  0000 C CNN
F 2 "CRF1:SMD-0603_r" V 9480 1650 50  0001 C CNN
F 3 "~" H 9550 1650 50  0001 C CNN
	1    9550 1650
	0    1    1    0   
$EndComp
$Comp
L ESCX-rescue:R-Device R36
U 1 1 5AE31071
P 8550 2200
F 0 "R36" V 8343 2200 50  0000 C CNN
F 1 "0.0005R" V 8434 2200 50  0000 C CNN
F 2 "CRF1:WSLP2726" V 8480 2200 50  0001 C CNN
F 3 "~" H 8550 2200 50  0001 C CNN
	1    8550 2200
	0    1    1    0   
$EndComp
$Comp
L ESCX-rescue:R-Device R38
U 1 1 5AE31077
P 9600 3250
F 0 "R38" V 9500 3250 50  0000 C CNN
F 1 "4.7R" V 9600 3250 50  0000 C CNN
F 2 "CRF1:SMD-0603_r" V 9530 3250 50  0001 C CNN
F 3 "~" H 9600 3250 50  0001 C CNN
	1    9600 3250
	0    1    1    0   
$EndComp
Wire Wire Line
	10150 1850 10150 2200
Wire Wire Line
	9750 3250 9850 3250
Wire Wire Line
	9700 1650 9850 1650
Wire Wire Line
	8700 2200 10150 2200
Connection ~ 10150 2200
Wire Wire Line
	10150 2200 10150 2550
Wire Wire Line
	8700 2200 8700 2500
Wire Wire Line
	8700 2500 8750 2500
Connection ~ 8700 2200
Wire Wire Line
	8400 2200 8400 2500
Wire Wire Line
	8400 2500 8350 2500
Wire Wire Line
	8100 2200 8400 2200
Connection ~ 8400 2200
Wire Wire Line
	9450 3250 9450 3000
Text HLabel 9450 3000 1    50   Input ~ 0
GL_C
Wire Wire Line
	9800 2550 10150 2550
Connection ~ 10150 2550
Wire Wire Line
	10150 2550 10150 3050
Text HLabel 9800 2550 0    50   Input ~ 0
SH_C
Wire Wire Line
	10150 3450 10150 3750
Text HLabel 9800 3750 0    50   Input ~ 0
SL_C
Wire Wire Line
	9800 3750 10150 3750
Connection ~ 10150 3750
Wire Wire Line
	10150 3750 10150 3900
$Comp
L ESCX-rescue:C-Device C46
U 1 1 5AE31095
P 10600 2550
F 0 "C46" V 10550 2350 50  0000 L CNN
F 1 "4.7u_100v" V 10550 2650 50  0000 L CNN
F 2 "CRF1:SMD-1206" H 10638 2400 50  0001 C CNN
F 3 "~" H 10600 2550 50  0001 C CNN
	1    10600 2550
	1    0    0    -1  
$EndComp
$Comp
L ESCX-rescue:C-Device C47
U 1 1 5AE3109B
P 10950 2550
F 0 "C47" V 10900 2350 50  0000 L CNN
F 1 "4.7u_100v" V 10900 2650 50  0000 L CNN
F 2 "CRF1:SMD-1206" H 10988 2400 50  0001 C CNN
F 3 "~" H 10950 2550 50  0001 C CNN
	1    10950 2550
	1    0    0    -1  
$EndComp
Wire Wire Line
	10150 3900 10600 3900
Wire Wire Line
	10600 3900 10600 2800
Connection ~ 10150 3900
Wire Wire Line
	10150 3900 10150 4250
Wire Wire Line
	10150 1450 10600 1450
Wire Wire Line
	10600 1450 10600 2400
Wire Wire Line
	10600 1450 10950 1450
Wire Wire Line
	10950 1450 10950 2400
Connection ~ 10600 1450
Wire Wire Line
	10950 2700 10950 2800
Wire Wire Line
	10950 2800 10600 2800
Connection ~ 10600 2800
Wire Wire Line
	10600 2800 10600 2700
Text HLabel 9250 1650 0    50   Input ~ 0
GH_C
Wire Wire Line
	9400 1650 9250 1650
Wire Wire Line
	8950 2900 8950 3000
Wire Wire Line
	8950 3600 8700 3600
Wire Wire Line
	8950 3100 8950 3600
$Comp
L ESCX-rescue:C-Device C43
U 1 1 5AE310B7
P 8550 3600
F 0 "C43" V 8600 3750 50  0000 C CNN
F 1 "2.2u" V 8600 3450 50  0000 C CNN
F 2 "CRF1:SMD-0603_c" H 8588 3450 50  0001 C CNN
F 3 "~" H 8550 3600 50  0001 C CNN
	1    8550 3600
	0    1    1    0   
$EndComp
Wire Wire Line
	8150 3600 8400 3600
Connection ~ 8150 3000
Wire Wire Line
	8150 3000 8150 3300
$Comp
L ESCX-rescue:GND-power #PWR068
U 1 1 5AE310C0
P 7900 3100
F 0 "#PWR068" H 7900 2850 50  0001 C CNN
F 1 "GND" H 7905 2927 50  0000 C CNN
F 2 "" H 7900 3100 50  0001 C CNN
F 3 "" H 7900 3100 50  0001 C CNN
	1    7900 3100
	1    0    0    -1  
$EndComp
$Comp
L ESCX-rescue:VCC-power #PWR069
U 1 1 5AE310C6
P 8950 2900
F 0 "#PWR069" H 8950 2750 50  0001 C CNN
F 1 "VCC" H 8967 3073 50  0000 C CNN
F 2 "" H 8950 2900 50  0001 C CNN
F 3 "" H 8950 2900 50  0001 C CNN
	1    8950 2900
	1    0    0    -1  
$EndComp
Wire Wire Line
	7900 3100 7900 3000
Wire Wire Line
	7900 3000 8150 3000
Wire Wire Line
	8550 3300 8150 3300
Connection ~ 8150 3300
Wire Wire Line
	8150 3300 8150 3600
Text Label 8150 2900 2    50   ~ 0
C_C
Wire Wire Line
	3000 1100 6700 1100
Wire Wire Line
	10150 1100 10150 1450
Wire Wire Line
	6700 1100 6700 1400
Wire Wire Line
	3000 4250 6700 4250
Wire Wire Line
	10150 4250 10150 4400
Connection ~ 10150 4250
Wire Wire Line
	10150 4250 10500 4250
Wire Wire Line
	3000 1100 3000 1450
Wire Wire Line
	6700 3850 6700 4250
Connection ~ 6700 1100
Connection ~ 6700 4250
Wire Wire Line
	6700 1100 10150 1100
Wire Wire Line
	6700 4250 10150 4250
$Comp
L ESCX-rescue:GND-power #PWR071
U 1 1 5AE520C8
P 10150 4400
F 0 "#PWR071" H 10150 4150 50  0001 C CNN
F 1 "GND" H 10155 4227 50  0000 C CNN
F 2 "" H 10150 4400 50  0001 C CNN
F 3 "" H 10150 4400 50  0001 C CNN
	1    10150 4400
	1    0    0    -1  
$EndComp
$Comp
L ESCX-rescue:R-Device R28
U 1 1 5AE52351
P 3050 5400
F 0 "R28" V 2950 5400 50  0000 C CNN
F 1 "100R" V 3150 5400 50  0000 C CNN
F 2 "CRF1:SMD-0603_r" V 2980 5400 50  0001 C CNN
F 3 "~" H 3050 5400 50  0001 C CNN
	1    3050 5400
	0    1    1    0   
$EndComp
$Comp
L ESCX-rescue:R-Device R29
U 1 1 5AE523D6
P 3050 6150
F 0 "R29" V 2950 6150 50  0000 C CNN
F 1 "100R" V 3150 6150 50  0000 C CNN
F 2 "CRF1:SMD-0603_r" V 2980 6150 50  0001 C CNN
F 3 "~" H 3050 6150 50  0001 C CNN
	1    3050 6150
	0    1    1    0   
$EndComp
$Comp
L ESCX-rescue:R-Device R30
U 1 1 5AE52452
P 3050 6900
F 0 "R30" V 2950 6900 50  0000 C CNN
F 1 "100R" V 3150 6900 50  0000 C CNN
F 2 "CRF1:SMD-0603_r" V 2980 6900 50  0001 C CNN
F 3 "~" H 3050 6900 50  0001 C CNN
	1    3050 6900
	0    1    1    0   
$EndComp
$Comp
L ESCX-rescue:C-Device C34
U 1 1 5AE524FF
P 2450 5600
F 0 "C34" H 2565 5646 50  0000 L CNN
F 1 "4.7n" H 2565 5555 50  0000 L CNN
F 2 "CRF1:SMD-0603_c" H 2488 5450 50  0001 C CNN
F 3 "~" H 2450 5600 50  0001 C CNN
	1    2450 5600
	1    0    0    -1  
$EndComp
$Comp
L ESCX-rescue:C-Device C35
U 1 1 5AE5255F
P 2450 6400
F 0 "C35" H 2565 6446 50  0000 L CNN
F 1 "4.7n" H 2565 6355 50  0000 L CNN
F 2 "CRF1:SMD-0603_c" H 2488 6250 50  0001 C CNN
F 3 "~" H 2450 6400 50  0001 C CNN
	1    2450 6400
	1    0    0    -1  
$EndComp
$Comp
L ESCX-rescue:C-Device C36
U 1 1 5AE525D1
P 2450 7100
F 0 "C36" H 2565 7146 50  0000 L CNN
F 1 "4.7n" H 2565 7055 50  0000 L CNN
F 2 "CRF1:SMD-0603_c" H 2488 6950 50  0001 C CNN
F 3 "~" H 2450 7100 50  0001 C CNN
	1    2450 7100
	1    0    0    -1  
$EndComp
Wire Wire Line
	2000 5400 2450 5400
Wire Wire Line
	2900 6150 2450 6150
Wire Wire Line
	2900 6900 2450 6900
Wire Wire Line
	2450 5450 2450 5400
Connection ~ 2450 5400
Wire Wire Line
	2450 5400 2900 5400
Wire Wire Line
	2450 6250 2450 6150
Connection ~ 2450 6150
Wire Wire Line
	2450 6150 2000 6150
Wire Wire Line
	2450 6950 2450 6900
Connection ~ 2450 6900
Wire Wire Line
	2450 6900 2000 6900
Text HLabel 2000 5400 0    50   Input ~ 0
CURR_A
Text HLabel 2000 6150 0    50   Input ~ 0
CURR_B
Text HLabel 2000 6900 0    50   Input ~ 0
CURR_C
$Comp
L ESCX-rescue:GND-power #PWR061
U 1 1 5AE69A81
P 2450 5750
F 0 "#PWR061" H 2450 5500 50  0001 C CNN
F 1 "GND" H 2455 5577 50  0000 C CNN
F 2 "" H 2450 5750 50  0001 C CNN
F 3 "" H 2450 5750 50  0001 C CNN
	1    2450 5750
	1    0    0    -1  
$EndComp
$Comp
L ESCX-rescue:GND-power #PWR062
U 1 1 5AE69AD5
P 2450 6550
F 0 "#PWR062" H 2450 6300 50  0001 C CNN
F 1 "GND" H 2455 6377 50  0000 C CNN
F 2 "" H 2450 6550 50  0001 C CNN
F 3 "" H 2450 6550 50  0001 C CNN
	1    2450 6550
	1    0    0    -1  
$EndComp
$Comp
L ESCX-rescue:GND-power #PWR063
U 1 1 5AE69B22
P 2450 7250
F 0 "#PWR063" H 2450 7000 50  0001 C CNN
F 1 "GND" H 2455 7077 50  0000 C CNN
F 2 "" H 2450 7250 50  0001 C CNN
F 3 "" H 2450 7250 50  0001 C CNN
	1    2450 7250
	1    0    0    -1  
$EndComp
Text Label 3200 5400 0    50   ~ 0
C_A
Text Label 3200 6150 0    50   ~ 0
C_B
Text Label 3200 6900 0    50   ~ 0
C_C
$Comp
L ESCX-rescue:VCC-power #PWR066
U 1 1 5AE6A653
P 5600 5250
F 0 "#PWR066" H 5600 5100 50  0001 C CNN
F 1 "VCC" H 5617 5423 50  0000 C CNN
F 2 "" H 5600 5250 50  0001 C CNN
F 3 "" H 5600 5250 50  0001 C CNN
	1    5600 5250
	1    0    0    -1  
$EndComp
$Comp
L ESCX-rescue:GND-power #PWR067
U 1 1 5AE6A725
P 5600 6400
F 0 "#PWR067" H 5600 6150 50  0001 C CNN
F 1 "GND" H 5605 6227 50  0000 C CNN
F 2 "" H 5600 6400 50  0001 C CNN
F 3 "" H 5600 6400 50  0001 C CNN
	1    5600 6400
	1    0    0    -1  
$EndComp
$Comp
L ESCX-rescue:R-Device R33
U 1 1 5AE6A7BF
P 5600 6050
F 0 "R33" V 5700 5950 50  0000 L CNN
F 1 "10k" V 5500 5950 50  0000 L CNN
F 2 "CRF1:SMD-0603_r" V 5530 6050 50  0001 C CNN
F 3 "~" H 5600 6050 50  0001 C CNN
	1    5600 6050
	1    0    0    -1  
$EndComp
$Comp
L ESCX-rescue:R-Device R32
U 1 1 5AE6A84D
P 5600 5600
F 0 "R32" H 5670 5646 50  0000 L CNN
F 1 "NTC 10k" V 5450 5500 50  0000 L CNN
F 2 "CRF1:SMD-0603_r" V 5530 5600 50  0001 C CNN
F 3 "~" H 5600 5600 50  0001 C CNN
	1    5600 5600
	1    0    0    -1  
$EndComp
$Comp
L ESCX-rescue:C-Device C40
U 1 1 5AE6A8F5
P 5200 6050
F 0 "C40" H 5250 6150 50  0000 L CNN
F 1 "2.2u" H 5250 5900 50  0000 L CNN
F 2 "CRF1:SMD-0603_c" H 5238 5900 50  0001 C CNN
F 3 "~" H 5200 6050 50  0001 C CNN
	1    5200 6050
	1    0    0    -1  
$EndComp
Wire Wire Line
	5600 5250 5600 5450
Wire Wire Line
	5600 5750 5600 5850
Wire Wire Line
	5600 6200 5600 6300
Wire Wire Line
	5200 6200 5200 6300
Wire Wire Line
	5200 6300 5600 6300
Connection ~ 5600 6300
Wire Wire Line
	5600 6300 5600 6400
Wire Wire Line
	5200 5900 5200 5850
Wire Wire Line
	5200 5850 5600 5850
Connection ~ 5600 5850
Wire Wire Line
	5600 5850 5600 5900
Wire Wire Line
	5600 5850 5950 5850
Text HLabel 5950 5850 2    50   Input ~ 0
TEMP
$Comp
L ESCX-rescue:C-Device C44
U 1 1 5AE8695C
P 8850 5350
F 0 "C44" H 8900 5450 50  0000 L CNN
F 1 "680u_63v" H 8900 5250 50  0000 L CNN
F 2 "Capacitor_THT:CP_Axial_L30.0mm_D15.0mm_P35.00mm_Horizontal" H 8888 5200 50  0001 C CNN
F 3 "~" H 8850 5350 50  0001 C CNN
	1    8850 5350
	1    0    0    -1  
$EndComp
$Comp
L ESCX-rescue:C-Device C45
U 1 1 5AE86A86
P 9450 5350
F 0 "C45" H 9500 5450 50  0000 L CNN
F 1 "680u_63v" H 9500 5250 50  0000 L CNN
F 2 "Capacitor_THT:CP_Axial_L30.0mm_D15.0mm_P35.00mm_Horizontal" H 9488 5200 50  0001 C CNN
F 3 "~" H 9450 5350 50  0001 C CNN
	1    9450 5350
	1    0    0    -1  
$EndComp
Wire Wire Line
	8850 5200 8850 4900
Wire Wire Line
	8850 4900 9450 4900
Wire Wire Line
	9450 4900 9450 5200
Wire Wire Line
	9450 4900 9800 4900
Connection ~ 9450 4900
Wire Wire Line
	8850 5500 8850 5700
Wire Wire Line
	8850 5700 9450 5700
Wire Wire Line
	9450 5700 9450 5500
Wire Wire Line
	9450 5700 9450 5900
Connection ~ 9450 5700
$Comp
L ESCX-rescue:GND-power #PWR070
U 1 1 5AE9C1FD
P 9450 5900
F 0 "#PWR070" H 9450 5650 50  0001 C CNN
F 1 "GND" H 9455 5727 50  0000 C CNN
F 2 "" H 9450 5900 50  0001 C CNN
F 3 "" H 9450 5900 50  0001 C CNN
	1    9450 5900
	1    0    0    -1  
$EndComp
Text HLabel 9800 4900 2    50   Input ~ 0
SUPPLY
$Comp
L ESCX-rescue:Conn_01x01-Connector_Generic J7
U 1 1 5AEC82A9
P 750 2200
F 0 "J7" H 750 2100 50  0000 C CNN
F 1 "PH_A" H 900 2200 50  0000 C CNN
F 2 "CRF1:1PAD_4x5mm" H 750 2200 50  0001 C CNN
F 3 "~" H 750 2200 50  0001 C CNN
	1    750  2200
	-1   0    0    1   
$EndComp
$Comp
L ESCX-rescue:Conn_01x01-Connector_Generic J8
U 1 1 5AEC877C
P 4450 2150
F 0 "J8" H 4450 2050 50  0000 C CNN
F 1 "PH_B" H 4650 2150 50  0000 C CNN
F 2 "CRF1:1PAD_4x5mm" H 4450 2150 50  0001 C CNN
F 3 "~" H 4450 2150 50  0001 C CNN
	1    4450 2150
	-1   0    0    1   
$EndComp
$Comp
L ESCX-rescue:Conn_01x01-Connector_Generic J9
U 1 1 5AEC8D18
P 7900 2200
F 0 "J9" H 7820 1975 50  0000 C CNN
F 1 "PH_C" H 7820 2066 50  0000 C CNN
F 2 "CRF1:1PAD_4x5mm" H 7900 2200 50  0001 C CNN
F 3 "~" H 7900 2200 50  0001 C CNN
	1    7900 2200
	-1   0    0    1   
$EndComp
$Comp
L ESCX-rescue:Conn_01x01-Connector_Generic J11
U 1 1 5B1AC8AD
P 10700 4250
F 0 "J11" H 10700 4350 50  0000 C CNN
F 1 "GND" H 10700 4150 50  0000 C CNN
F 2 "CRF1:1PAD_4x5mm" H 10700 4250 50  0001 C CNN
F 3 "~" H 10700 4250 50  0001 C CNN
	1    10700 4250
	1    0    0    -1  
$EndComp
Text HLabel 10150 800  0    50   Input ~ 0
SUPPLY
Wire Wire Line
	10150 800  10150 1100
Connection ~ 10150 1100
$Comp
L ESCX-rescue:Conn_01x01-Connector_Generic J10
U 1 1 5B168A48
P 10350 1100
F 0 "J10" H 10350 1200 50  0000 C CNN
F 1 "SUPPLY" H 10350 1000 50  0000 C CNN
F 2 "CRF1:1PAD_4x5mm" H 10350 1100 50  0001 C CNN
F 3 "~" H 10350 1100 50  0001 C CNN
	1    10350 1100
	1    0    0    -1  
$EndComp
$Comp
L bldc:IRF7749L1PBF Q1
U 1 1 5B1C0925
P 3000 1650
F 0 "Q1" H 3106 1696 50  0000 L CNN
F 1 "IRF7749" H 3106 1605 50  0000 L CNN
F 2 "Package_DirectFET:DirectFET_L8" H 3000 1650 50  0001 C CNN
F 3 "" H 3000 1650 50  0001 C CNN
	1    3000 1650
	1    0    0    -1  
$EndComp
Connection ~ 3000 1450
$Comp
L bldc:IRF7749L1PBF Q2
U 1 1 5B1C81B4
P 3000 3250
F 0 "Q2" H 3106 3296 50  0000 L CNN
F 1 "IRF7749" H 3106 3205 50  0000 L CNN
F 2 "Package_DirectFET:DirectFET_L8" H 3000 3250 50  0001 C CNN
F 3 "" H 3000 3250 50  0001 C CNN
	1    3000 3250
	1    0    0    -1  
$EndComp
$Comp
L bldc:IRF7749L1PBF Q3
U 1 1 5B1C8A99
P 6700 1600
F 0 "Q3" H 6806 1646 50  0000 L CNN
F 1 "IRF7749" H 6806 1555 50  0000 L CNN
F 2 "Package_DirectFET:DirectFET_L8" H 6700 1600 50  0001 C CNN
F 3 "" H 6700 1600 50  0001 C CNN
	1    6700 1600
	1    0    0    -1  
$EndComp
Connection ~ 6700 1400
$Comp
L bldc:IRF7749L1PBF Q4
U 1 1 5B1C8BE9
P 6700 3200
F 0 "Q4" H 6806 3246 50  0000 L CNN
F 1 "IRF7749" H 6806 3155 50  0000 L CNN
F 2 "Package_DirectFET:DirectFET_L8" H 6700 3200 50  0001 C CNN
F 3 "" H 6700 3200 50  0001 C CNN
	1    6700 3200
	1    0    0    -1  
$EndComp
$Comp
L bldc:IRF7749L1PBF Q6
U 1 1 5B1C8DFD
P 10150 3250
F 0 "Q6" H 10256 3296 50  0000 L CNN
F 1 "IRF7749" H 10256 3205 50  0000 L CNN
F 2 "Package_DirectFET:DirectFET_L8" H 10150 3250 50  0001 C CNN
F 3 "" H 10150 3250 50  0001 C CNN
	1    10150 3250
	1    0    0    -1  
$EndComp
$Comp
L bldc:IRF7749L1PBF Q5
U 1 1 5B1C8EF5
P 10150 1650
F 0 "Q5" H 10256 1696 50  0000 L CNN
F 1 "IRF7749" H 10256 1605 50  0000 L CNN
F 2 "Package_DirectFET:DirectFET_L8" H 10150 1650 50  0001 C CNN
F 3 "" H 10150 1650 50  0001 C CNN
	1    10150 1650
	1    0    0    -1  
$EndComp
Connection ~ 10150 1450
Wire Wire Line
	1800 3100 1800 3000
Connection ~ 1800 3100
Connection ~ 1800 3000
Wire Wire Line
	8950 3100 8950 3000
Connection ~ 8950 3100
Connection ~ 8950 3000
$EndSCHEMATC
